<svg width="129" height="101" viewBox="0 0 129 101" fill="none" xmlns="http://www.w3.org/2000/svg">
<g clip-path="url(#clip0_78_804)">
<path d="M100.28 0H128.93V100.28C113.1 100.28 100.28 87.45 100.28 71.63V0Z" fill="url(#paint0_linear_78_804)"/>
<path d="M71.62 0H128.93V57.31C97.28 57.31 71.62 31.65 71.62 0Z" fill="url(#paint1_linear_78_804)"/>
<path d="M50.14 50.14V0H100.28L50.14 50.14Z" fill="url(#paint2_linear_78_804)"/>
<path d="M50.14 50.14V0H0L50.14 50.14Z" fill="url(#paint3_linear_78_804)"/>
</g>
<defs>
<linearGradient id="paint0_linear_78_804" x1="117.68" y1="44.95" x2="171.35" y2="93.64" gradientUnits="userSpaceOnUse">
<stop stop-color="#344868"/>
<stop offset="1" stop-color="#0EAAC3"/>
</linearGradient>
<linearGradient id="paint1_linear_78_804" x1="107.4" y1="19.16" x2="156.44" y2="63.64" gradientUnits="userSpaceOnUse">
<stop stop-color="#ECFC7F"/>
<stop offset="1" stop-color="#0EAAC3"/>
</linearGradient>
<linearGradient id="paint2_linear_78_804" x1="75.21" y1="-18.89" x2="75.21" y2="56.69" gradientUnits="userSpaceOnUse">
<stop stop-color="#ECFC7F"/>
<stop offset="1" stop-color="#0EAAC3"/>
</linearGradient>
<linearGradient id="paint3_linear_78_804" x1="25.07" y1="-18.89" x2="25.07" y2="56.69" gradientUnits="userSpaceOnUse">
<stop stop-color="#344868"/>
<stop offset="1" stop-color="#0EAAC3"/>
</linearGradient>
<clipPath id="clip0_78_804">
<rect width="128.93" height="100.28" fill="white"/>
</clipPath>
</defs>
</svg>
